STEM compatibility • flexsurvPlus
…
stem_cov contains estimates for a covariance matrix for the
parameters and is only derived if samples is provided.

names(PFS_conv_x$stem_cov)
#>  [1] "Model"     "ModelF"    "Dist"      "DistF"     "rowParam"  "colParam" 
#>  [7] "rowParamF" "colParamF" "rowNum"    "colNum"    "CovEst"

# note is empty here as samples were not provided
nrow(PFS_conv_x$stem_cov)
#> [1] 0

PFS_conv_samples$stem_cov %>%
  transmute(Model, Dist, rowParam, colParam, rowNum, colNum, CovEst) 
#> # A tibble: 23 × 7
#>    Model        Dist        rowParam         colParam     rowNum colNum   CovEst
#>    <chr>        <chr>       <chr>            <chr>         <dbl>  <dbl>    <dbl>
#>  1 Common shape Exponential INTERCEPT        INTERCEPT         1      1  4.54e-3
#>  2 Common shape Exponential INTERCEPT        TX(Interven…      1      2 -4.86e-3
#>  3 Common shape Exponential TX(Intervention) INTERCEPT         2      1 -4.86e-3
#>  4 Common shape Exponential TX(Intervention) TX(Interven…      2      2  7.93e-3
#>  5 Common shape Weibull     INTERCEPT        INTERCEPT         1      1  2.98e-3
#>  6 Common shape Weibull     INTERCEPT        TX(Interven…      1      2 -3.18e-3
#>  7 Common shape Weibull     INTERCEPT        SCALE             1      3  8.86e-5
#>  8 Common shape Weibull     TX(Intervention) INTERCEPT         2      1 -3.18e-3
#>  9 Common shape Weibull     TX(Intervention) TX(Interven…      2      2  5.80e-3
#> 10 Common shape Weibull     TX(Intervention) SCALE             2      3 -7.51e-5
#> # ℹ 13 more rows
…
